EESchema Schematic File Version 4
EELAYER 30 0
EELAYER END
$Descr A4 11693 8268
encoding utf-8
Sheet 1 1
Title ""
Date ""
Rev ""
Comp ""
Comment1 ""
Comment2 ""
Comment3 ""
Comment4 ""
$EndDescr
$Comp
L MCU_Module:Arduino_Nano_v3.x A1
U 1 1 5EBF50F7
P 1750 1850
F 0 "A1" H 1750 761 50  0000 C CNN
F 1 "Arduino_Nano_v3.x" H 1750 670 50  0000 C CNN
F 2 "Module:Arduino_Nano" H 1750 1850 50  0001 C CIN
F 3 "http://www.mouser.com/pdfdocs/Gravitech_Arduino_Nano3_0.pdf" H 1750 1850 50  0001 C CNN
	1    1750 1850
	1    0    0    -1  
$EndComp
$Comp
L 74xx:74HC4051 U1
U 1 1 5EBF78D8
P 3300 1750
F 0 "U1" H 3350 2431 50  0000 C CNN
F 1 "74HC4051" H 3350 2340 50  0000 C CNN
F 2 "Package_SO:TSSOP-16_4.4x5mm_P0.65mm" H 4200 750 50  0001 C CIN
F 3 "http://www.ti.com/lit/ds/symlink/cd74hc4067.pdf" H 2950 2600 50  0001 C CNN
	1    3300 1750
	1    0    0    -1  
$EndComp
Wire Wire Line
	1750 2850 1850 2850
Connection ~ 1850 2850
Wire Wire Line
	1850 2850 2900 2850
Wire Wire Line
	1950 850  1950 750 
$Comp
L power:+5V #PWR0101
U 1 1 5EC0A67B
P 1950 750
F 0 "#PWR0101" H 1950 600 50  0001 C CNN
F 1 "+5V" H 1965 923 50  0000 C CNN
F 2 "" H 1950 750 50  0001 C CNN
F 3 "" H 1950 750 50  0001 C CNN
	1    1950 750 
	1    0    0    -1  
$EndComp
$Comp
L power:+5V #PWR0102
U 1 1 5EC0B5BB
P 2900 1250
F 0 "#PWR0102" H 2900 1100 50  0001 C CNN
F 1 "+5V" H 2915 1423 50  0000 C CNN
F 2 "" H 2900 1250 50  0001 C CNN
F 3 "" H 2900 1250 50  0001 C CNN
	1    2900 1250
	0    -1   -1   0   
$EndComp
Wire Wire Line
	2900 1250 3300 1250
$Comp
L power:GND #PWR0104
U 1 1 5EC1DC7C
P 2900 2850
F 0 "#PWR0104" H 2900 2600 50  0001 C CNN
F 1 "GND" H 2905 2677 50  0000 C CNN
F 2 "" H 2900 2850 50  0001 C CNN
F 3 "" H 2900 2850 50  0001 C CNN
	1    2900 2850
	1    0    0    -1  
$EndComp
Connection ~ 2900 2850
Wire Wire Line
	2900 2850 3300 2850
Text GLabel 2250 1850 2    50   Input ~ 0
A0
Text GLabel 2250 1950 2    50   Input ~ 0
A1
Text GLabel 3000 1450 0    50   Input ~ 0
A0
Text GLabel 4350 1450 0    50   Input ~ 0
A1
Text GLabel 1250 1450 0    50   Input ~ 0
D2
Text GLabel 1250 1550 0    50   Input ~ 0
D3
Text GLabel 1250 1650 0    50   Input ~ 0
D4
Text GLabel 3000 1650 0    50   Input ~ 0
D2
Text GLabel 3000 1750 0    50   Input ~ 0
D3
Text GLabel 3000 1850 0    50   Input ~ 0
D4
Wire Wire Line
	3300 2350 3300 2850
Connection ~ 3300 2850
Text GLabel 3700 1450 2    50   Input ~ 0
S_POT1
Text GLabel 3700 1550 2    50   Input ~ 0
S_POT2
Text GLabel 3700 1650 2    50   Input ~ 0
S_POT3
Text GLabel 3700 1750 2    50   Input ~ 0
S_POT4
Text GLabel 3700 1850 2    50   Input ~ 0
S_POT5
Text GLabel 3700 1950 2    50   Input ~ 0
S_POT6
Text GLabel 3700 2050 2    50   Input ~ 0
S_POT7
Text GLabel 3700 2150 2    50   Input ~ 0
S_POT8
Text GLabel 5050 1450 2    50   Input ~ 0
S_POT9
Text GLabel 5050 1550 2    50   Input ~ 0
S_POT10
Text GLabel 5050 1650 2    50   Input ~ 0
S_POT11
Text GLabel 5050 1750 2    50   Input ~ 0
S_POT12
Text GLabel 5050 1850 2    50   Input ~ 0
S_POT13
Text GLabel 5050 1950 2    50   Input ~ 0
S_POT14
Text GLabel 5050 2050 2    50   Input ~ 0
S_POT15
Text GLabel 5050 2150 2    50   Input ~ 0
S_POT16
Text GLabel 6450 1450 2    50   Input ~ 0
POT1
Text GLabel 6450 1550 2    50   Input ~ 0
POT2
Text GLabel 6450 1650 2    50   Input ~ 0
POT3
Text GLabel 6450 1750 2    50   Input ~ 0
POT4
Text GLabel 6450 1850 2    50   Input ~ 0
POT5
Text GLabel 6450 1950 2    50   Input ~ 0
POT6
Text GLabel 6450 2050 2    50   Input ~ 0
POT7
Text GLabel 6450 2150 2    50   Input ~ 0
POT8
Text GLabel 7750 1450 2    50   Input ~ 0
POT9
Text GLabel 7750 1550 2    50   Input ~ 0
POT10
Text GLabel 7750 1650 2    50   Input ~ 0
POT11
Text GLabel 7750 1750 2    50   Input ~ 0
POT12
Text GLabel 7750 1850 2    50   Input ~ 0
POT13
Text GLabel 7750 1950 2    50   Input ~ 0
POT14
Text GLabel 7750 2050 2    50   Input ~ 0
POT15
Text GLabel 7750 2150 2    50   Input ~ 0
POT16
Text GLabel 5750 1450 0    50   Input ~ 0
A2
Text GLabel 9100 1450 2    50   Input ~ 0
LED1
Text GLabel 9100 1550 2    50   Input ~ 0
LED2
Text GLabel 9100 1650 2    50   Input ~ 0
LED3
Text GLabel 9100 1750 2    50   Input ~ 0
LED4
Text GLabel 9100 1850 2    50   Input ~ 0
LED5
Text GLabel 9100 1950 2    50   Input ~ 0
LED6
Text GLabel 9100 2050 2    50   Input ~ 0
LED7
Text GLabel 9100 2150 2    50   Input ~ 0
LED8
Text GLabel 10400 1450 2    50   Input ~ 0
LED9
Text GLabel 10400 1550 2    50   Input ~ 0
LED10
Text GLabel 10400 1650 2    50   Input ~ 0
LED11
Text GLabel 10400 1750 2    50   Input ~ 0
LED12
Text GLabel 10400 1850 2    50   Input ~ 0
LED13
Text GLabel 10400 1950 2    50   Input ~ 0
LED14
Text GLabel 10400 2050 2    50   Input ~ 0
LED15
Text GLabel 10400 2150 2    50   Input ~ 0
LED16
Text GLabel 2250 2050 2    50   Input ~ 0
A2
$Comp
L PTL60-19O0-104B1:PTL60-19O0-104B1 VR1
U 1 1 5EC8D33C
P 850 3650
F 0 "VR1" H 1400 3915 50  0000 C CNN
F 1 "PTL60-19O0-103B2" H 1400 3824 50  0000 C CNN
F 2 "midicontrolsurface:PTL6019O0104B1" H 1800 3750 50  0001 L CNN
F 3 "https://www.bourns.com/docs/Product-Datasheets/PTL.pdf" H 1800 3650 50  0001 L CNN
F 4 "Slide Potentiometers 10Kohms Travel=60mm Orange LED" H 1800 3550 50  0001 L CNN "Description"
F 5 "27" H 1800 3450 50  0001 L CNN "Height"
F 6 "Bourns" H 1800 3350 50  0001 L CNN "Manufacturer_Name"
F 7 "PTL60-19O0-104B1" H 1800 3250 50  0001 L CNN "Manufacturer_Part_Number"
F 8 "652-PLT60-19O0-104B1" H 1800 3150 50  0001 L CNN "Mouser Part Number"
F 9 "https://www.mouser.co.uk/ProductDetail/Bourns/PTL60-19O0-104B1?qs=l7cgNqFNU1h8YZ0W7qx0Lw%3D%3D" H 1800 3050 50  0001 L CNN "Mouser Price/Stock"
F 10 "" H 1800 2950 50  0001 L CNN "RS Part Number"
F 11 "" H 1800 2850 50  0001 L CNN "RS Price/Stock"
	1    850  3650
	1    0    0    -1  
$EndComp
Text GLabel 1950 3750 2    50   Input ~ 0
LED1
Text GLabel 850  3950 0    50   Input ~ 0
LED-
$Comp
L power:GND #PWR0106
U 1 1 5EC99781
P 850 3750
F 0 "#PWR0106" H 850 3500 50  0001 C CNN
F 1 "GND" H 855 3577 50  0000 C CNN
F 2 "" H 850 3750 50  0001 C CNN
F 3 "" H 850 3750 50  0001 C CNN
	1    850  3750
	0    1    1    0   
$EndComp
Text GLabel 850  3650 0    50   Input ~ 0
S_POT1
$Comp
L power:+5V #PWR0107
U 1 1 5ECA1F1A
P 1950 3650
F 0 "#PWR0107" H 1950 3500 50  0001 C CNN
F 1 "+5V" H 1965 3823 50  0000 C CNN
F 2 "" H 1950 3650 50  0001 C CNN
F 3 "" H 1950 3650 50  0001 C CNN
	1    1950 3650
	0    1    1    0   
$EndComp
$Comp
L PTL60-19O0-104B1:PTL60-19O0-104B1 VR4
U 1 1 5ECA6F3D
P 2650 3650
F 0 "VR4" H 3200 3915 50  0000 C CNN
F 1 "PTL60-19O0-103B2" H 3200 3824 50  0000 C CNN
F 2 "midicontrolsurface:PTL6019O0104B1" H 3600 3750 50  0001 L CNN
F 3 "https://www.bourns.com/docs/Product-Datasheets/PTL.pdf" H 3600 3650 50  0001 L CNN
F 4 "Slide Potentiometers 10Kohms Travel=60mm Orange LED" H 3600 3550 50  0001 L CNN "Description"
F 5 "27" H 3600 3450 50  0001 L CNN "Height"
F 6 "Bourns" H 3600 3350 50  0001 L CNN "Manufacturer_Name"
F 7 "PTL60-19O0-104B1" H 3600 3250 50  0001 L CNN "Manufacturer_Part_Number"
F 8 "652-PLT60-19O0-104B1" H 3600 3150 50  0001 L CNN "Mouser Part Number"
F 9 "https://www.mouser.co.uk/ProductDetail/Bourns/PTL60-19O0-104B1?qs=l7cgNqFNU1h8YZ0W7qx0Lw%3D%3D" H 3600 3050 50  0001 L CNN "Mouser Price/Stock"
F 10 "" H 3600 2950 50  0001 L CNN "RS Part Number"
F 11 "" H 3600 2850 50  0001 L CNN "RS Price/Stock"
	1    2650 3650
	1    0    0    -1  
$EndComp
Text GLabel 3750 3750 2    50   Input ~ 0
LED4
Text GLabel 2650 3950 0    50   Input ~ 0
LED-
$Comp
L power:GND #PWR0108
U 1 1 5ECA6F45
P 2650 3750
F 0 "#PWR0108" H 2650 3500 50  0001 C CNN
F 1 "GND" H 2655 3577 50  0000 C CNN
F 2 "" H 2650 3750 50  0001 C CNN
F 3 "" H 2650 3750 50  0001 C CNN
	1    2650 3750
	0    1    1    0   
$EndComp
Text GLabel 2650 3650 0    50   Input ~ 0
S_POT4
$Comp
L power:+5V #PWR0109
U 1 1 5ECA6F4C
P 3750 3650
F 0 "#PWR0109" H 3750 3500 50  0001 C CNN
F 1 "+5V" H 3765 3823 50  0000 C CNN
F 2 "" H 3750 3650 50  0001 C CNN
F 3 "" H 3750 3650 50  0001 C CNN
	1    3750 3650
	0    1    1    0   
$EndComp
$Comp
L PTL60-19O0-104B1:PTL60-19O0-104B1 VR7
U 1 1 5ECB1160
P 4500 3650
F 0 "VR7" H 5050 3915 50  0000 C CNN
F 1 "PTL60-19O0-103B2" H 5050 3824 50  0000 C CNN
F 2 "midicontrolsurface:PTL6019O0104B1" H 5450 3750 50  0001 L CNN
F 3 "https://www.bourns.com/docs/Product-Datasheets/PTL.pdf" H 5450 3650 50  0001 L CNN
F 4 "Slide Potentiometers 10Kohms Travel=60mm Orange LED" H 5450 3550 50  0001 L CNN "Description"
F 5 "27" H 5450 3450 50  0001 L CNN "Height"
F 6 "Bourns" H 5450 3350 50  0001 L CNN "Manufacturer_Name"
F 7 "PTL60-19O0-104B1" H 5450 3250 50  0001 L CNN "Manufacturer_Part_Number"
F 8 "652-PLT60-19O0-104B1" H 5450 3150 50  0001 L CNN "Mouser Part Number"
F 9 "https://www.mouser.co.uk/ProductDetail/Bourns/PTL60-19O0-104B1?qs=l7cgNqFNU1h8YZ0W7qx0Lw%3D%3D" H 5450 3050 50  0001 L CNN "Mouser Price/Stock"
F 10 "" H 5450 2950 50  0001 L CNN "RS Part Number"
F 11 "" H 5450 2850 50  0001 L CNN "RS Price/Stock"
	1    4500 3650
	1    0    0    -1  
$EndComp
Text GLabel 5600 3750 2    50   Input ~ 0
LED7
Text GLabel 4500 3950 0    50   Input ~ 0
LED-
$Comp
L power:GND #PWR0110
U 1 1 5ECB1168
P 4500 3750
F 0 "#PWR0110" H 4500 3500 50  0001 C CNN
F 1 "GND" H 4505 3577 50  0000 C CNN
F 2 "" H 4500 3750 50  0001 C CNN
F 3 "" H 4500 3750 50  0001 C CNN
	1    4500 3750
	0    1    1    0   
$EndComp
Text GLabel 4500 3650 0    50   Input ~ 0
S_POT7
$Comp
L power:+5V #PWR0111
U 1 1 5ECB116F
P 5600 3650
F 0 "#PWR0111" H 5600 3500 50  0001 C CNN
F 1 "+5V" H 5615 3823 50  0000 C CNN
F 2 "" H 5600 3650 50  0001 C CNN
F 3 "" H 5600 3650 50  0001 C CNN
	1    5600 3650
	0    1    1    0   
$EndComp
$Comp
L PTL60-19O0-104B1:PTL60-19O0-104B1 VR10
U 1 1 5ECB117D
P 6300 3650
F 0 "VR10" H 6850 3915 50  0000 C CNN
F 1 "PTL60-19O0-103B2" H 6850 3824 50  0000 C CNN
F 2 "midicontrolsurface:PTL6019O0104B1" H 7250 3750 50  0001 L CNN
F 3 "https://www.bourns.com/docs/Product-Datasheets/PTL.pdf" H 7250 3650 50  0001 L CNN
F 4 "Slide Potentiometers 10Kohms Travel=60mm Orange LED" H 7250 3550 50  0001 L CNN "Description"
F 5 "27" H 7250 3450 50  0001 L CNN "Height"
F 6 "Bourns" H 7250 3350 50  0001 L CNN "Manufacturer_Name"
F 7 "PTL60-19O0-104B1" H 7250 3250 50  0001 L CNN "Manufacturer_Part_Number"
F 8 "652-PLT60-19O0-104B1" H 7250 3150 50  0001 L CNN "Mouser Part Number"
F 9 "https://www.mouser.co.uk/ProductDetail/Bourns/PTL60-19O0-104B1?qs=l7cgNqFNU1h8YZ0W7qx0Lw%3D%3D" H 7250 3050 50  0001 L CNN "Mouser Price/Stock"
F 10 "" H 7250 2950 50  0001 L CNN "RS Part Number"
F 11 "" H 7250 2850 50  0001 L CNN "RS Price/Stock"
	1    6300 3650
	1    0    0    -1  
$EndComp
Text GLabel 7400 3750 2    50   Input ~ 0
LED10
Text GLabel 6300 3950 0    50   Input ~ 0
LED-
$Comp
L power:GND #PWR0112
U 1 1 5ECB1185
P 6300 3750
F 0 "#PWR0112" H 6300 3500 50  0001 C CNN
F 1 "GND" H 6305 3577 50  0000 C CNN
F 2 "" H 6300 3750 50  0001 C CNN
F 3 "" H 6300 3750 50  0001 C CNN
	1    6300 3750
	0    1    1    0   
$EndComp
Text GLabel 6300 3650 0    50   Input ~ 0
S_POT10
$Comp
L power:+5V #PWR0113
U 1 1 5ECB118C
P 7400 3650
F 0 "#PWR0113" H 7400 3500 50  0001 C CNN
F 1 "+5V" H 7415 3823 50  0000 C CNN
F 2 "" H 7400 3650 50  0001 C CNN
F 3 "" H 7400 3650 50  0001 C CNN
	1    7400 3650
	0    1    1    0   
$EndComp
$Comp
L PTL60-19O0-104B1:PTL60-19O0-104B1 VR2
U 1 1 5ECBEA74
P 1200 4450
F 0 "VR2" H 1750 4715 50  0000 C CNN
F 1 "PTL60-19O0-103B2" H 1750 4624 50  0000 C CNN
F 2 "midicontrolsurface:PTL6019O0104B1" H 2150 4550 50  0001 L CNN
F 3 "https://www.bourns.com/docs/Product-Datasheets/PTL.pdf" H 2150 4450 50  0001 L CNN
F 4 "Slide Potentiometers 10Kohms Travel=60mm Orange LED" H 2150 4350 50  0001 L CNN "Description"
F 5 "27" H 2150 4250 50  0001 L CNN "Height"
F 6 "Bourns" H 2150 4150 50  0001 L CNN "Manufacturer_Name"
F 7 "PTL60-19O0-104B1" H 2150 4050 50  0001 L CNN "Manufacturer_Part_Number"
F 8 "652-PLT60-19O0-104B1" H 2150 3950 50  0001 L CNN "Mouser Part Number"
F 9 "https://www.mouser.co.uk/ProductDetail/Bourns/PTL60-19O0-104B1?qs=l7cgNqFNU1h8YZ0W7qx0Lw%3D%3D" H 2150 3850 50  0001 L CNN "Mouser Price/Stock"
F 10 "" H 2150 3750 50  0001 L CNN "RS Part Number"
F 11 "" H 2150 3650 50  0001 L CNN "RS Price/Stock"
	1    1200 4450
	1    0    0    -1  
$EndComp
Text GLabel 2300 4550 2    50   Input ~ 0
LED2
Text GLabel 1200 4750 0    50   Input ~ 0
LED-
$Comp
L power:GND #PWR0114
U 1 1 5ECBEA7C
P 1200 4550
F 0 "#PWR0114" H 1200 4300 50  0001 C CNN
F 1 "GND" H 1205 4377 50  0000 C CNN
F 2 "" H 1200 4550 50  0001 C CNN
F 3 "" H 1200 4550 50  0001 C CNN
	1    1200 4550
	0    1    1    0   
$EndComp
Text GLabel 1200 4450 0    50   Input ~ 0
S_POT2
$Comp
L power:+5V #PWR0115
U 1 1 5ECBEA83
P 2300 4450
F 0 "#PWR0115" H 2300 4300 50  0001 C CNN
F 1 "+5V" H 2315 4623 50  0000 C CNN
F 2 "" H 2300 4450 50  0001 C CNN
F 3 "" H 2300 4450 50  0001 C CNN
	1    2300 4450
	0    1    1    0   
$EndComp
$Comp
L PTL60-19O0-104B1:PTL60-19O0-104B1 VR5
U 1 1 5ECBEA91
P 3000 4450
F 0 "VR5" H 3550 4715 50  0000 C CNN
F 1 "PTL60-19O0-103B2" H 3550 4624 50  0000 C CNN
F 2 "midicontrolsurface:PTL6019O0104B1" H 3950 4550 50  0001 L CNN
F 3 "https://www.bourns.com/docs/Product-Datasheets/PTL.pdf" H 3950 4450 50  0001 L CNN
F 4 "Slide Potentiometers 10Kohms Travel=60mm Orange LED" H 3950 4350 50  0001 L CNN "Description"
F 5 "27" H 3950 4250 50  0001 L CNN "Height"
F 6 "Bourns" H 3950 4150 50  0001 L CNN "Manufacturer_Name"
F 7 "PTL60-19O0-104B1" H 3950 4050 50  0001 L CNN "Manufacturer_Part_Number"
F 8 "652-PLT60-19O0-104B1" H 3950 3950 50  0001 L CNN "Mouser Part Number"
F 9 "https://www.mouser.co.uk/ProductDetail/Bourns/PTL60-19O0-104B1?qs=l7cgNqFNU1h8YZ0W7qx0Lw%3D%3D" H 3950 3850 50  0001 L CNN "Mouser Price/Stock"
F 10 "" H 3950 3750 50  0001 L CNN "RS Part Number"
F 11 "" H 3950 3650 50  0001 L CNN "RS Price/Stock"
	1    3000 4450
	1    0    0    -1  
$EndComp
Text GLabel 4100 4550 2    50   Input ~ 0
LED5
Text GLabel 3000 4750 0    50   Input ~ 0
LED-
$Comp
L power:GND #PWR0116
U 1 1 5ECBEA99
P 3000 4550
F 0 "#PWR0116" H 3000 4300 50  0001 C CNN
F 1 "GND" H 3005 4377 50  0000 C CNN
F 2 "" H 3000 4550 50  0001 C CNN
F 3 "" H 3000 4550 50  0001 C CNN
	1    3000 4550
	0    1    1    0   
$EndComp
Text GLabel 3000 4450 0    50   Input ~ 0
S_POT5
$Comp
L power:+5V #PWR0117
U 1 1 5ECBEAA0
P 4100 4450
F 0 "#PWR0117" H 4100 4300 50  0001 C CNN
F 1 "+5V" H 4115 4623 50  0000 C CNN
F 2 "" H 4100 4450 50  0001 C CNN
F 3 "" H 4100 4450 50  0001 C CNN
	1    4100 4450
	0    1    1    0   
$EndComp
$Comp
L PTL60-19O0-104B1:PTL60-19O0-104B1 VR8
U 1 1 5ECBEAAE
P 4850 4450
F 0 "VR8" H 5400 4715 50  0000 C CNN
F 1 "PTL60-19O0-103B2" H 5400 4624 50  0000 C CNN
F 2 "midicontrolsurface:PTL6019O0104B1" H 5800 4550 50  0001 L CNN
F 3 "https://www.bourns.com/docs/Product-Datasheets/PTL.pdf" H 5800 4450 50  0001 L CNN
F 4 "Slide Potentiometers 10Kohms Travel=60mm Orange LED" H 5800 4350 50  0001 L CNN "Description"
F 5 "27" H 5800 4250 50  0001 L CNN "Height"
F 6 "Bourns" H 5800 4150 50  0001 L CNN "Manufacturer_Name"
F 7 "PTL60-19O0-104B1" H 5800 4050 50  0001 L CNN "Manufacturer_Part_Number"
F 8 "652-PLT60-19O0-104B1" H 5800 3950 50  0001 L CNN "Mouser Part Number"
F 9 "https://www.mouser.co.uk/ProductDetail/Bourns/PTL60-19O0-104B1?qs=l7cgNqFNU1h8YZ0W7qx0Lw%3D%3D" H 5800 3850 50  0001 L CNN "Mouser Price/Stock"
F 10 "" H 5800 3750 50  0001 L CNN "RS Part Number"
F 11 "" H 5800 3650 50  0001 L CNN "RS Price/Stock"
	1    4850 4450
	1    0    0    -1  
$EndComp
Text GLabel 5950 4550 2    50   Input ~ 0
LED8
Text GLabel 4850 4750 0    50   Input ~ 0
LED-
$Comp
L power:GND #PWR0118
U 1 1 5ECBEAB6
P 4850 4550
F 0 "#PWR0118" H 4850 4300 50  0001 C CNN
F 1 "GND" H 4855 4377 50  0000 C CNN
F 2 "" H 4850 4550 50  0001 C CNN
F 3 "" H 4850 4550 50  0001 C CNN
	1    4850 4550
	0    1    1    0   
$EndComp
Text GLabel 4850 4450 0    50   Input ~ 0
S_POT8
$Comp
L power:+5V #PWR0119
U 1 1 5ECBEABD
P 5950 4450
F 0 "#PWR0119" H 5950 4300 50  0001 C CNN
F 1 "+5V" H 5965 4623 50  0000 C CNN
F 2 "" H 5950 4450 50  0001 C CNN
F 3 "" H 5950 4450 50  0001 C CNN
	1    5950 4450
	0    1    1    0   
$EndComp
$Comp
L PTL60-19O0-104B1:PTL60-19O0-104B1 VR11
U 1 1 5ECBEACB
P 6650 4450
F 0 "VR11" H 7200 4715 50  0000 C CNN
F 1 "PTL60-19O0-103B2" H 7200 4624 50  0000 C CNN
F 2 "midicontrolsurface:PTL6019O0104B1" H 7600 4550 50  0001 L CNN
F 3 "https://www.bourns.com/docs/Product-Datasheets/PTL.pdf" H 7600 4450 50  0001 L CNN
F 4 "Slide Potentiometers 10Kohms Travel=60mm Orange LED" H 7600 4350 50  0001 L CNN "Description"
F 5 "27" H 7600 4250 50  0001 L CNN "Height"
F 6 "Bourns" H 7600 4150 50  0001 L CNN "Manufacturer_Name"
F 7 "PTL60-19O0-104B1" H 7600 4050 50  0001 L CNN "Manufacturer_Part_Number"
F 8 "652-PLT60-19O0-104B1" H 7600 3950 50  0001 L CNN "Mouser Part Number"
F 9 "https://www.mouser.co.uk/ProductDetail/Bourns/PTL60-19O0-104B1?qs=l7cgNqFNU1h8YZ0W7qx0Lw%3D%3D" H 7600 3850 50  0001 L CNN "Mouser Price/Stock"
F 10 "" H 7600 3750 50  0001 L CNN "RS Part Number"
F 11 "" H 7600 3650 50  0001 L CNN "RS Price/Stock"
	1    6650 4450
	1    0    0    -1  
$EndComp
Text GLabel 7750 4550 2    50   Input ~ 0
LED11
Text GLabel 6650 4750 0    50   Input ~ 0
LED-
$Comp
L power:GND #PWR0120
U 1 1 5ECBEAD3
P 6650 4550
F 0 "#PWR0120" H 6650 4300 50  0001 C CNN
F 1 "GND" H 6655 4377 50  0000 C CNN
F 2 "" H 6650 4550 50  0001 C CNN
F 3 "" H 6650 4550 50  0001 C CNN
	1    6650 4550
	0    1    1    0   
$EndComp
Text GLabel 6650 4450 0    50   Input ~ 0
S_POT11
$Comp
L power:+5V #PWR0121
U 1 1 5ECBEADA
P 7750 4450
F 0 "#PWR0121" H 7750 4300 50  0001 C CNN
F 1 "+5V" H 7765 4623 50  0000 C CNN
F 2 "" H 7750 4450 50  0001 C CNN
F 3 "" H 7750 4450 50  0001 C CNN
	1    7750 4450
	0    1    1    0   
$EndComp
$Comp
L PTL60-19O0-104B1:PTL60-19O0-104B1 VR3
U 1 1 5ECE88B0
P 1500 5300
F 0 "VR3" H 2050 5565 50  0000 C CNN
F 1 "PTL60-19O0-103B2" H 2050 5474 50  0000 C CNN
F 2 "midicontrolsurface:PTL6019O0104B1" H 2450 5400 50  0001 L CNN
F 3 "https://www.bourns.com/docs/Product-Datasheets/PTL.pdf" H 2450 5300 50  0001 L CNN
F 4 "Slide Potentiometers 10Kohms Travel=60mm Orange LED" H 2450 5200 50  0001 L CNN "Description"
F 5 "27" H 2450 5100 50  0001 L CNN "Height"
F 6 "Bourns" H 2450 5000 50  0001 L CNN "Manufacturer_Name"
F 7 "PTL60-19O0-104B1" H 2450 4900 50  0001 L CNN "Manufacturer_Part_Number"
F 8 "652-PLT60-19O0-104B1" H 2450 4800 50  0001 L CNN "Mouser Part Number"
F 9 "https://www.mouser.co.uk/ProductDetail/Bourns/PTL60-19O0-104B1?qs=l7cgNqFNU1h8YZ0W7qx0Lw%3D%3D" H 2450 4700 50  0001 L CNN "Mouser Price/Stock"
F 10 "" H 2450 4600 50  0001 L CNN "RS Part Number"
F 11 "" H 2450 4500 50  0001 L CNN "RS Price/Stock"
	1    1500 5300
	1    0    0    -1  
$EndComp
Text GLabel 2600 5400 2    50   Input ~ 0
LED3
Text GLabel 1500 5600 0    50   Input ~ 0
LED-
$Comp
L power:GND #PWR0122
U 1 1 5ECE88B8
P 1500 5400
F 0 "#PWR0122" H 1500 5150 50  0001 C CNN
F 1 "GND" H 1505 5227 50  0000 C CNN
F 2 "" H 1500 5400 50  0001 C CNN
F 3 "" H 1500 5400 50  0001 C CNN
	1    1500 5400
	0    1    1    0   
$EndComp
Text GLabel 1500 5300 0    50   Input ~ 0
S_POT3
$Comp
L power:+5V #PWR0123
U 1 1 5ECE88BF
P 2600 5300
F 0 "#PWR0123" H 2600 5150 50  0001 C CNN
F 1 "+5V" H 2615 5473 50  0000 C CNN
F 2 "" H 2600 5300 50  0001 C CNN
F 3 "" H 2600 5300 50  0001 C CNN
	1    2600 5300
	0    1    1    0   
$EndComp
$Comp
L PTL60-19O0-104B1:PTL60-19O0-104B1 VR6
U 1 1 5ECE88CD
P 3300 5300
F 0 "VR6" H 3850 5565 50  0000 C CNN
F 1 "PTL60-19O0-103B2" H 3850 5474 50  0000 C CNN
F 2 "midicontrolsurface:PTL6019O0104B1" H 4250 5400 50  0001 L CNN
F 3 "https://www.bourns.com/docs/Product-Datasheets/PTL.pdf" H 4250 5300 50  0001 L CNN
F 4 "Slide Potentiometers 10Kohms Travel=60mm Orange LED" H 4250 5200 50  0001 L CNN "Description"
F 5 "27" H 4250 5100 50  0001 L CNN "Height"
F 6 "Bourns" H 4250 5000 50  0001 L CNN "Manufacturer_Name"
F 7 "PTL60-19O0-104B1" H 4250 4900 50  0001 L CNN "Manufacturer_Part_Number"
F 8 "652-PLT60-19O0-104B1" H 4250 4800 50  0001 L CNN "Mouser Part Number"
F 9 "https://www.mouser.co.uk/ProductDetail/Bourns/PTL60-19O0-104B1?qs=l7cgNqFNU1h8YZ0W7qx0Lw%3D%3D" H 4250 4700 50  0001 L CNN "Mouser Price/Stock"
F 10 "" H 4250 4600 50  0001 L CNN "RS Part Number"
F 11 "" H 4250 4500 50  0001 L CNN "RS Price/Stock"
	1    3300 5300
	1    0    0    -1  
$EndComp
Text GLabel 4400 5400 2    50   Input ~ 0
LED6
Text GLabel 3300 5600 0    50   Input ~ 0
LED-
$Comp
L power:GND #PWR0124
U 1 1 5ECE88D5
P 3300 5400
F 0 "#PWR0124" H 3300 5150 50  0001 C CNN
F 1 "GND" H 3305 5227 50  0000 C CNN
F 2 "" H 3300 5400 50  0001 C CNN
F 3 "" H 3300 5400 50  0001 C CNN
	1    3300 5400
	0    1    1    0   
$EndComp
Text GLabel 3300 5300 0    50   Input ~ 0
S_POT6
$Comp
L power:+5V #PWR0125
U 1 1 5ECE88DC
P 4400 5300
F 0 "#PWR0125" H 4400 5150 50  0001 C CNN
F 1 "+5V" H 4415 5473 50  0000 C CNN
F 2 "" H 4400 5300 50  0001 C CNN
F 3 "" H 4400 5300 50  0001 C CNN
	1    4400 5300
	0    1    1    0   
$EndComp
$Comp
L PTL60-19O0-104B1:PTL60-19O0-104B1 VR9
U 1 1 5ECE88EA
P 5150 5300
F 0 "VR9" H 5700 5565 50  0000 C CNN
F 1 "PTL60-19O0-103B2" H 5700 5474 50  0000 C CNN
F 2 "midicontrolsurface:PTL6019O0104B1" H 6100 5400 50  0001 L CNN
F 3 "https://www.bourns.com/docs/Product-Datasheets/PTL.pdf" H 6100 5300 50  0001 L CNN
F 4 "Slide Potentiometers 10Kohms Travel=60mm Orange LED" H 6100 5200 50  0001 L CNN "Description"
F 5 "27" H 6100 5100 50  0001 L CNN "Height"
F 6 "Bourns" H 6100 5000 50  0001 L CNN "Manufacturer_Name"
F 7 "PTL60-19O0-104B1" H 6100 4900 50  0001 L CNN "Manufacturer_Part_Number"
F 8 "652-PLT60-19O0-104B1" H 6100 4800 50  0001 L CNN "Mouser Part Number"
F 9 "https://www.mouser.co.uk/ProductDetail/Bourns/PTL60-19O0-104B1?qs=l7cgNqFNU1h8YZ0W7qx0Lw%3D%3D" H 6100 4700 50  0001 L CNN "Mouser Price/Stock"
F 10 "" H 6100 4600 50  0001 L CNN "RS Part Number"
F 11 "" H 6100 4500 50  0001 L CNN "RS Price/Stock"
	1    5150 5300
	1    0    0    -1  
$EndComp
Text GLabel 6250 5400 2    50   Input ~ 0
LED9
Text GLabel 5150 5600 0    50   Input ~ 0
LED-
$Comp
L power:GND #PWR0126
U 1 1 5ECE88F2
P 5150 5400
F 0 "#PWR0126" H 5150 5150 50  0001 C CNN
F 1 "GND" H 5155 5227 50  0000 C CNN
F 2 "" H 5150 5400 50  0001 C CNN
F 3 "" H 5150 5400 50  0001 C CNN
	1    5150 5400
	0    1    1    0   
$EndComp
Text GLabel 5150 5300 0    50   Input ~ 0
S_POT9
$Comp
L power:+5V #PWR0127
U 1 1 5ECE88F9
P 6250 5300
F 0 "#PWR0127" H 6250 5150 50  0001 C CNN
F 1 "+5V" H 6265 5473 50  0000 C CNN
F 2 "" H 6250 5300 50  0001 C CNN
F 3 "" H 6250 5300 50  0001 C CNN
	1    6250 5300
	0    1    1    0   
$EndComp
$Comp
L PTL60-19O0-104B1:PTL60-19O0-104B1 VR12
U 1 1 5ECE8907
P 6950 5300
F 0 "VR12" H 7500 5565 50  0000 C CNN
F 1 "PTL60-19O0-103B2" H 7500 5474 50  0000 C CNN
F 2 "midicontrolsurface:PTL6019O0104B1" H 7900 5400 50  0001 L CNN
F 3 "https://www.bourns.com/docs/Product-Datasheets/PTL.pdf" H 7900 5300 50  0001 L CNN
F 4 "Slide Potentiometers 10Kohms Travel=60mm Orange LED" H 7900 5200 50  0001 L CNN "Description"
F 5 "27" H 7900 5100 50  0001 L CNN "Height"
F 6 "Bourns" H 7900 5000 50  0001 L CNN "Manufacturer_Name"
F 7 "PTL60-19O0-104B1" H 7900 4900 50  0001 L CNN "Manufacturer_Part_Number"
F 8 "652-PLT60-19O0-104B1" H 7900 4800 50  0001 L CNN "Mouser Part Number"
F 9 "https://www.mouser.co.uk/ProductDetail/Bourns/PTL60-19O0-104B1?qs=l7cgNqFNU1h8YZ0W7qx0Lw%3D%3D" H 7900 4700 50  0001 L CNN "Mouser Price/Stock"
F 10 "" H 7900 4600 50  0001 L CNN "RS Part Number"
F 11 "" H 7900 4500 50  0001 L CNN "RS Price/Stock"
	1    6950 5300
	1    0    0    -1  
$EndComp
Text GLabel 8050 5400 2    50   Input ~ 0
LED12
Text GLabel 6950 5600 0    50   Input ~ 0
LED-
$Comp
L power:GND #PWR0128
U 1 1 5ECE890F
P 6950 5400
F 0 "#PWR0128" H 6950 5150 50  0001 C CNN
F 1 "GND" H 6955 5227 50  0000 C CNN
F 2 "" H 6950 5400 50  0001 C CNN
F 3 "" H 6950 5400 50  0001 C CNN
	1    6950 5400
	0    1    1    0   
$EndComp
Text GLabel 6950 5300 0    50   Input ~ 0
S_POT12
$Comp
L power:+5V #PWR0129
U 1 1 5ECE8916
P 8050 5300
F 0 "#PWR0129" H 8050 5150 50  0001 C CNN
F 1 "+5V" H 8065 5473 50  0000 C CNN
F 2 "" H 8050 5300 50  0001 C CNN
F 3 "" H 8050 5300 50  0001 C CNN
	1    8050 5300
	0    1    1    0   
$EndComp
$Comp
L PTL60-19O0-104B1:PTL60-19O0-104B1 VR13
U 1 1 5ED39248
P 8100 3650
F 0 "VR13" H 8650 3915 50  0000 C CNN
F 1 "PTL60-19O0-103B2" H 8650 3824 50  0000 C CNN
F 2 "midicontrolsurface:PTL6019O0104B1" H 9050 3750 50  0001 L CNN
F 3 "https://www.bourns.com/docs/Product-Datasheets/PTL.pdf" H 9050 3650 50  0001 L CNN
F 4 "Slide Potentiometers 10Kohms Travel=60mm Orange LED" H 9050 3550 50  0001 L CNN "Description"
F 5 "27" H 9050 3450 50  0001 L CNN "Height"
F 6 "Bourns" H 9050 3350 50  0001 L CNN "Manufacturer_Name"
F 7 "PTL60-19O0-104B1" H 9050 3250 50  0001 L CNN "Manufacturer_Part_Number"
F 8 "652-PLT60-19O0-104B1" H 9050 3150 50  0001 L CNN "Mouser Part Number"
F 9 "https://www.mouser.co.uk/ProductDetail/Bourns/PTL60-19O0-104B1?qs=l7cgNqFNU1h8YZ0W7qx0Lw%3D%3D" H 9050 3050 50  0001 L CNN "Mouser Price/Stock"
F 10 "" H 9050 2950 50  0001 L CNN "RS Part Number"
F 11 "" H 9050 2850 50  0001 L CNN "RS Price/Stock"
	1    8100 3650
	1    0    0    -1  
$EndComp
Text GLabel 9200 3750 2    50   Input ~ 0
LED13
Text GLabel 8100 3950 0    50   Input ~ 0
LED-
$Comp
L power:GND #PWR0130
U 1 1 5ED39250
P 8100 3750
F 0 "#PWR0130" H 8100 3500 50  0001 C CNN
F 1 "GND" H 8105 3577 50  0000 C CNN
F 2 "" H 8100 3750 50  0001 C CNN
F 3 "" H 8100 3750 50  0001 C CNN
	1    8100 3750
	0    1    1    0   
$EndComp
Text GLabel 8100 3650 0    50   Input ~ 0
S_POT13
$Comp
L power:+5V #PWR0131
U 1 1 5ED39257
P 9200 3650
F 0 "#PWR0131" H 9200 3500 50  0001 C CNN
F 1 "+5V" H 9215 3823 50  0000 C CNN
F 2 "" H 9200 3650 50  0001 C CNN
F 3 "" H 9200 3650 50  0001 C CNN
	1    9200 3650
	0    1    1    0   
$EndComp
$Comp
L PTL60-19O0-104B1:PTL60-19O0-104B1 VR16
U 1 1 5ED39265
P 9900 3650
F 0 "VR16" H 10450 3915 50  0000 C CNN
F 1 "PTL60-19O0-103B2" H 10450 3824 50  0000 C CNN
F 2 "midicontrolsurface:PTL6019O0104B1" H 10850 3750 50  0001 L CNN
F 3 "https://www.bourns.com/docs/Product-Datasheets/PTL.pdf" H 10850 3650 50  0001 L CNN
F 4 "Slide Potentiometers 10Kohms Travel=60mm Orange LED" H 10850 3550 50  0001 L CNN "Description"
F 5 "27" H 10850 3450 50  0001 L CNN "Height"
F 6 "Bourns" H 10850 3350 50  0001 L CNN "Manufacturer_Name"
F 7 "PTL60-19O0-104B1" H 10850 3250 50  0001 L CNN "Manufacturer_Part_Number"
F 8 "652-PLT60-19O0-104B1" H 10850 3150 50  0001 L CNN "Mouser Part Number"
F 9 "https://www.mouser.co.uk/ProductDetail/Bourns/PTL60-19O0-104B1?qs=l7cgNqFNU1h8YZ0W7qx0Lw%3D%3D" H 10850 3050 50  0001 L CNN "Mouser Price/Stock"
F 10 "" H 10850 2950 50  0001 L CNN "RS Part Number"
F 11 "" H 10850 2850 50  0001 L CNN "RS Price/Stock"
	1    9900 3650
	1    0    0    -1  
$EndComp
Text GLabel 11000 3750 2    50   Input ~ 0
LED16
Text GLabel 9900 3950 0    50   Input ~ 0
LED-
$Comp
L power:GND #PWR0132
U 1 1 5ED3926D
P 9900 3750
F 0 "#PWR0132" H 9900 3500 50  0001 C CNN
F 1 "GND" H 9905 3577 50  0000 C CNN
F 2 "" H 9900 3750 50  0001 C CNN
F 3 "" H 9900 3750 50  0001 C CNN
	1    9900 3750
	0    1    1    0   
$EndComp
Text GLabel 9900 3650 0    50   Input ~ 0
S_POT16
$Comp
L power:+5V #PWR0133
U 1 1 5ED39274
P 11000 3650
F 0 "#PWR0133" H 11000 3500 50  0001 C CNN
F 1 "+5V" H 11015 3823 50  0000 C CNN
F 2 "" H 11000 3650 50  0001 C CNN
F 3 "" H 11000 3650 50  0001 C CNN
	1    11000 3650
	0    1    1    0   
$EndComp
$Comp
L PTL60-19O0-104B1:PTL60-19O0-104B1 VR14
U 1 1 5ED532C8
P 8450 4450
F 0 "VR14" H 9000 4715 50  0000 C CNN
F 1 "PTL60-19O0-103B2" H 9000 4624 50  0000 C CNN
F 2 "midicontrolsurface:PTL6019O0104B1" H 9400 4550 50  0001 L CNN
F 3 "https://www.bourns.com/docs/Product-Datasheets/PTL.pdf" H 9400 4450 50  0001 L CNN
F 4 "Slide Potentiometers 10Kohms Travel=60mm Orange LED" H 9400 4350 50  0001 L CNN "Description"
F 5 "27" H 9400 4250 50  0001 L CNN "Height"
F 6 "Bourns" H 9400 4150 50  0001 L CNN "Manufacturer_Name"
F 7 "PTL60-19O0-104B1" H 9400 4050 50  0001 L CNN "Manufacturer_Part_Number"
F 8 "652-PLT60-19O0-104B1" H 9400 3950 50  0001 L CNN "Mouser Part Number"
F 9 "https://www.mouser.co.uk/ProductDetail/Bourns/PTL60-19O0-104B1?qs=l7cgNqFNU1h8YZ0W7qx0Lw%3D%3D" H 9400 3850 50  0001 L CNN "Mouser Price/Stock"
F 10 "" H 9400 3750 50  0001 L CNN "RS Part Number"
F 11 "" H 9400 3650 50  0001 L CNN "RS Price/Stock"
	1    8450 4450
	1    0    0    -1  
$EndComp
Text GLabel 9550 4550 2    50   Input ~ 0
LED14
Text GLabel 8450 4750 0    50   Input ~ 0
LED-
$Comp
L power:GND #PWR0134
U 1 1 5ED532D0
P 8450 4550
F 0 "#PWR0134" H 8450 4300 50  0001 C CNN
F 1 "GND" H 8455 4377 50  0000 C CNN
F 2 "" H 8450 4550 50  0001 C CNN
F 3 "" H 8450 4550 50  0001 C CNN
	1    8450 4550
	0    1    1    0   
$EndComp
Text GLabel 8450 4450 0    50   Input ~ 0
S_POT14
$Comp
L power:+5V #PWR0135
U 1 1 5ED532D7
P 9550 4450
F 0 "#PWR0135" H 9550 4300 50  0001 C CNN
F 1 "+5V" H 9565 4623 50  0000 C CNN
F 2 "" H 9550 4450 50  0001 C CNN
F 3 "" H 9550 4450 50  0001 C CNN
	1    9550 4450
	0    1    1    0   
$EndComp
$Comp
L PTL60-19O0-104B1:PTL60-19O0-104B1 VR15
U 1 1 5ED55CDC
P 8750 5250
F 0 "VR15" H 9300 5515 50  0000 C CNN
F 1 "PTL60-19O0-103B2" H 9300 5424 50  0000 C CNN
F 2 "midicontrolsurface:PTL6019O0104B1" H 9700 5350 50  0001 L CNN
F 3 "https://www.bourns.com/docs/Product-Datasheets/PTL.pdf" H 9700 5250 50  0001 L CNN
F 4 "Slide Potentiometers 10Kohms Travel=60mm Orange LED" H 9700 5150 50  0001 L CNN "Description"
F 5 "27" H 9700 5050 50  0001 L CNN "Height"
F 6 "Bourns" H 9700 4950 50  0001 L CNN "Manufacturer_Name"
F 7 "PTL60-19O0-104B1" H 9700 4850 50  0001 L CNN "Manufacturer_Part_Number"
F 8 "652-PLT60-19O0-104B1" H 9700 4750 50  0001 L CNN "Mouser Part Number"
F 9 "https://www.mouser.co.uk/ProductDetail/Bourns/PTL60-19O0-104B1?qs=l7cgNqFNU1h8YZ0W7qx0Lw%3D%3D" H 9700 4650 50  0001 L CNN "Mouser Price/Stock"
F 10 "" H 9700 4550 50  0001 L CNN "RS Part Number"
F 11 "" H 9700 4450 50  0001 L CNN "RS Price/Stock"
	1    8750 5250
	1    0    0    -1  
$EndComp
Text GLabel 9850 5350 2    50   Input ~ 0
LED15
Text GLabel 8750 5550 0    50   Input ~ 0
LED-
$Comp
L power:GND #PWR0136
U 1 1 5ED55CE4
P 8750 5350
F 0 "#PWR0136" H 8750 5100 50  0001 C CNN
F 1 "GND" H 8755 5177 50  0000 C CNN
F 2 "" H 8750 5350 50  0001 C CNN
F 3 "" H 8750 5350 50  0001 C CNN
	1    8750 5350
	0    1    1    0   
$EndComp
Text GLabel 8750 5250 0    50   Input ~ 0
S_POT15
$Comp
L power:+5V #PWR0137
U 1 1 5ED55CEB
P 9850 5250
F 0 "#PWR0137" H 9850 5100 50  0001 C CNN
F 1 "+5V" H 9865 5423 50  0000 C CNN
F 2 "" H 9850 5250 50  0001 C CNN
F 3 "" H 9850 5250 50  0001 C CNN
	1    9850 5250
	0    1    1    0   
$EndComp
$Comp
L Device:R_POT RV1
U 1 1 5ED6B1A8
P 900 6700
F 0 "RV1" H 831 6746 50  0000 R CNN
F 1 "PTV09A-4225F-B103" H 831 6655 50  0000 R CNN
F 2 "Potentiometer_THT:Potentiometer_Bourns_PTV09A-1_Single_Vertical" H 900 6700 50  0001 C CNN
F 3 "~" H 900 6700 50  0001 C CNN
	1    900  6700
	1    0    0    -1  
$EndComp
$Comp
L power:GND #PWR0138
U 1 1 5ED702CE
P 900 6550
F 0 "#PWR0138" H 900 6300 50  0001 C CNN
F 1 "GND" H 905 6377 50  0000 C CNN
F 2 "" H 900 6550 50  0001 C CNN
F 3 "" H 900 6550 50  0001 C CNN
	1    900  6550
	-1   0    0    1   
$EndComp
$Comp
L power:+5V #PWR0139
U 1 1 5ED72E5B
P 900 6850
F 0 "#PWR0139" H 900 6700 50  0001 C CNN
F 1 "+5V" H 915 7023 50  0000 C CNN
F 2 "" H 900 6850 50  0001 C CNN
F 3 "" H 900 6850 50  0001 C CNN
	1    900  6850
	-1   0    0    1   
$EndComp
Text GLabel 1050 6700 2    50   Input ~ 0
POT1
$Comp
L Device:R_POT RV3
U 1 1 5ED7DA1F
P 1650 6700
F 0 "RV3" H 1581 6746 50  0000 R CNN
F 1 "PTV09A-4225F-B103" H 1581 6655 50  0000 R CNN
F 2 "Potentiometer_THT:Potentiometer_Bourns_PTV09A-1_Single_Vertical" H 1650 6700 50  0001 C CNN
F 3 "~" H 1650 6700 50  0001 C CNN
	1    1650 6700
	1    0    0    -1  
$EndComp
$Comp
L power:GND #PWR0140
U 1 1 5ED7DA25
P 1650 6550
F 0 "#PWR0140" H 1650 6300 50  0001 C CNN
F 1 "GND" H 1655 6377 50  0000 C CNN
F 2 "" H 1650 6550 50  0001 C CNN
F 3 "" H 1650 6550 50  0001 C CNN
	1    1650 6550
	-1   0    0    1   
$EndComp
$Comp
L power:+5V #PWR0141
U 1 1 5ED7DA2B
P 1650 6850
F 0 "#PWR0141" H 1650 6700 50  0001 C CNN
F 1 "+5V" H 1665 7023 50  0000 C CNN
F 2 "" H 1650 6850 50  0001 C CNN
F 3 "" H 1650 6850 50  0001 C CNN
	1    1650 6850
	-1   0    0    1   
$EndComp
Text GLabel 1800 6700 2    50   Input ~ 0
POT3
$Comp
L Device:R_POT RV5
U 1 1 5ED7ECA7
P 2400 6700
F 0 "RV5" H 2331 6746 50  0000 R CNN
F 1 "PTV09A-4225F-B103" H 2331 6655 50  0000 R CNN
F 2 "Potentiometer_THT:Potentiometer_Bourns_PTV09A-1_Single_Vertical" H 2400 6700 50  0001 C CNN
F 3 "~" H 2400 6700 50  0001 C CNN
	1    2400 6700
	1    0    0    -1  
$EndComp
$Comp
L power:GND #PWR0142
U 1 1 5ED7ECAD
P 2400 6550
F 0 "#PWR0142" H 2400 6300 50  0001 C CNN
F 1 "GND" H 2405 6377 50  0000 C CNN
F 2 "" H 2400 6550 50  0001 C CNN
F 3 "" H 2400 6550 50  0001 C CNN
	1    2400 6550
	-1   0    0    1   
$EndComp
$Comp
L power:+5V #PWR0143
U 1 1 5ED7ECB3
P 2400 6850
F 0 "#PWR0143" H 2400 6700 50  0001 C CNN
F 1 "+5V" H 2415 7023 50  0000 C CNN
F 2 "" H 2400 6850 50  0001 C CNN
F 3 "" H 2400 6850 50  0001 C CNN
	1    2400 6850
	-1   0    0    1   
$EndComp
Text GLabel 2550 6700 2    50   Input ~ 0
POT5
$Comp
L Device:R_POT RV7
U 1 1 5ED7F783
P 3150 6700
F 0 "RV7" H 3081 6746 50  0000 R CNN
F 1 "PTV09A-4225F-B103" H 3081 6655 50  0000 R CNN
F 2 "Potentiometer_THT:Potentiometer_Bourns_PTV09A-1_Single_Vertical" H 3150 6700 50  0001 C CNN
F 3 "~" H 3150 6700 50  0001 C CNN
	1    3150 6700
	1    0    0    -1  
$EndComp
$Comp
L power:GND #PWR0144
U 1 1 5ED7F789
P 3150 6550
F 0 "#PWR0144" H 3150 6300 50  0001 C CNN
F 1 "GND" H 3155 6377 50  0000 C CNN
F 2 "" H 3150 6550 50  0001 C CNN
F 3 "" H 3150 6550 50  0001 C CNN
	1    3150 6550
	-1   0    0    1   
$EndComp
$Comp
L power:+5V #PWR0145
U 1 1 5ED7F78F
P 3150 6850
F 0 "#PWR0145" H 3150 6700 50  0001 C CNN
F 1 "+5V" H 3165 7023 50  0000 C CNN
F 2 "" H 3150 6850 50  0001 C CNN
F 3 "" H 3150 6850 50  0001 C CNN
	1    3150 6850
	-1   0    0    1   
$EndComp
Text GLabel 3300 6700 2    50   Input ~ 0
POT7
$Comp
L Device:R_POT RV9
U 1 1 5ED80331
P 3900 6700
F 0 "RV9" H 3831 6746 50  0000 R CNN
F 1 "PTV09A-4225F-B103" H 3831 6655 50  0000 R CNN
F 2 "Potentiometer_THT:Potentiometer_Bourns_PTV09A-1_Single_Vertical" H 3900 6700 50  0001 C CNN
F 3 "~" H 3900 6700 50  0001 C CNN
	1    3900 6700
	1    0    0    -1  
$EndComp
$Comp
L power:GND #PWR0146
U 1 1 5ED80337
P 3900 6550
F 0 "#PWR0146" H 3900 6300 50  0001 C CNN
F 1 "GND" H 3905 6377 50  0000 C CNN
F 2 "" H 3900 6550 50  0001 C CNN
F 3 "" H 3900 6550 50  0001 C CNN
	1    3900 6550
	-1   0    0    1   
$EndComp
$Comp
L power:+5V #PWR0147
U 1 1 5ED8033D
P 3900 6850
F 0 "#PWR0147" H 3900 6700 50  0001 C CNN
F 1 "+5V" H 3915 7023 50  0000 C CNN
F 2 "" H 3900 6850 50  0001 C CNN
F 3 "" H 3900 6850 50  0001 C CNN
	1    3900 6850
	-1   0    0    1   
$EndComp
Text GLabel 4050 6700 2    50   Input ~ 0
POT9
$Comp
L Device:R_POT RV11
U 1 1 5ED80FFF
P 4650 6700
F 0 "RV11" H 4581 6746 50  0000 R CNN
F 1 "PTV09A-4225F-B103" H 4581 6655 50  0000 R CNN
F 2 "Potentiometer_THT:Potentiometer_Bourns_PTV09A-1_Single_Vertical" H 4650 6700 50  0001 C CNN
F 3 "~" H 4650 6700 50  0001 C CNN
	1    4650 6700
	1    0    0    -1  
$EndComp
$Comp
L power:GND #PWR0148
U 1 1 5ED81005
P 4650 6550
F 0 "#PWR0148" H 4650 6300 50  0001 C CNN
F 1 "GND" H 4655 6377 50  0000 C CNN
F 2 "" H 4650 6550 50  0001 C CNN
F 3 "" H 4650 6550 50  0001 C CNN
	1    4650 6550
	-1   0    0    1   
$EndComp
$Comp
L power:+5V #PWR0149
U 1 1 5ED8100B
P 4650 6850
F 0 "#PWR0149" H 4650 6700 50  0001 C CNN
F 1 "+5V" H 4665 7023 50  0000 C CNN
F 2 "" H 4650 6850 50  0001 C CNN
F 3 "" H 4650 6850 50  0001 C CNN
	1    4650 6850
	-1   0    0    1   
$EndComp
Text GLabel 4800 6700 2    50   Input ~ 0
POT11
$Comp
L Device:R_POT RV13
U 1 1 5ED825AB
P 5400 6700
F 0 "RV13" H 5331 6746 50  0000 R CNN
F 1 "PTV09A-4225F-B103" H 5331 6655 50  0000 R CNN
F 2 "Potentiometer_THT:Potentiometer_Bourns_PTV09A-1_Single_Vertical" H 5400 6700 50  0001 C CNN
F 3 "~" H 5400 6700 50  0001 C CNN
	1    5400 6700
	1    0    0    -1  
$EndComp
$Comp
L power:GND #PWR0150
U 1 1 5ED825B1
P 5400 6550
F 0 "#PWR0150" H 5400 6300 50  0001 C CNN
F 1 "GND" H 5405 6377 50  0000 C CNN
F 2 "" H 5400 6550 50  0001 C CNN
F 3 "" H 5400 6550 50  0001 C CNN
	1    5400 6550
	-1   0    0    1   
$EndComp
$Comp
L power:+5V #PWR0151
U 1 1 5ED825B7
P 5400 6850
F 0 "#PWR0151" H 5400 6700 50  0001 C CNN
F 1 "+5V" H 5415 7023 50  0000 C CNN
F 2 "" H 5400 6850 50  0001 C CNN
F 3 "" H 5400 6850 50  0001 C CNN
	1    5400 6850
	-1   0    0    1   
$EndComp
Text GLabel 5550 6700 2    50   Input ~ 0
POT13
$Comp
L Device:R_POT RV15
U 1 1 5ED85207
P 6150 6700
F 0 "RV15" H 6081 6746 50  0000 R CNN
F 1 "PTV09A-4225F-B103" H 6081 6655 50  0000 R CNN
F 2 "Potentiometer_THT:Potentiometer_Bourns_PTV09A-1_Single_Vertical" H 6150 6700 50  0001 C CNN
F 3 "~" H 6150 6700 50  0001 C CNN
	1    6150 6700
	1    0    0    -1  
$EndComp
$Comp
L power:GND #PWR0152
U 1 1 5ED8520D
P 6150 6550
F 0 "#PWR0152" H 6150 6300 50  0001 C CNN
F 1 "GND" H 6155 6377 50  0000 C CNN
F 2 "" H 6150 6550 50  0001 C CNN
F 3 "" H 6150 6550 50  0001 C CNN
	1    6150 6550
	-1   0    0    1   
$EndComp
$Comp
L power:+5V #PWR0153
U 1 1 5ED85213
P 6150 6850
F 0 "#PWR0153" H 6150 6700 50  0001 C CNN
F 1 "+5V" H 6165 7023 50  0000 C CNN
F 2 "" H 6150 6850 50  0001 C CNN
F 3 "" H 6150 6850 50  0001 C CNN
	1    6150 6850
	-1   0    0    1   
$EndComp
Text GLabel 6300 6700 2    50   Input ~ 0
POT15
$Comp
L Device:R_POT RV2
U 1 1 5ED9BE3E
P 1150 7300
F 0 "RV2" H 1081 7346 50  0000 R CNN
F 1 "PTV09A-4225F-B103" H 1081 7255 50  0000 R CNN
F 2 "Potentiometer_THT:Potentiometer_Bourns_PTV09A-1_Single_Vertical" H 1150 7300 50  0001 C CNN
F 3 "~" H 1150 7300 50  0001 C CNN
	1    1150 7300
	1    0    0    -1  
$EndComp
$Comp
L power:GND #PWR0154
U 1 1 5ED9BE44
P 1150 7150
F 0 "#PWR0154" H 1150 6900 50  0001 C CNN
F 1 "GND" H 1155 6977 50  0000 C CNN
F 2 "" H 1150 7150 50  0001 C CNN
F 3 "" H 1150 7150 50  0001 C CNN
	1    1150 7150
	-1   0    0    1   
$EndComp
$Comp
L power:+5V #PWR0155
U 1 1 5ED9BE4A
P 1150 7450
F 0 "#PWR0155" H 1150 7300 50  0001 C CNN
F 1 "+5V" H 1165 7623 50  0000 C CNN
F 2 "" H 1150 7450 50  0001 C CNN
F 3 "" H 1150 7450 50  0001 C CNN
	1    1150 7450
	-1   0    0    1   
$EndComp
Text GLabel 1300 7300 2    50   Input ~ 0
POT2
$Comp
L Device:R_POT RV4
U 1 1 5ED9BE51
P 1900 7300
F 0 "RV4" H 1831 7346 50  0000 R CNN
F 1 "PTV09A-4225F-B103" H 1831 7255 50  0000 R CNN
F 2 "Potentiometer_THT:Potentiometer_Bourns_PTV09A-1_Single_Vertical" H 1900 7300 50  0001 C CNN
F 3 "~" H 1900 7300 50  0001 C CNN
	1    1900 7300
	1    0    0    -1  
$EndComp
$Comp
L power:GND #PWR0156
U 1 1 5ED9BE57
P 1900 7150
F 0 "#PWR0156" H 1900 6900 50  0001 C CNN
F 1 "GND" H 1905 6977 50  0000 C CNN
F 2 "" H 1900 7150 50  0001 C CNN
F 3 "" H 1900 7150 50  0001 C CNN
	1    1900 7150
	-1   0    0    1   
$EndComp
$Comp
L power:+5V #PWR0157
U 1 1 5ED9BE5D
P 1900 7450
F 0 "#PWR0157" H 1900 7300 50  0001 C CNN
F 1 "+5V" H 1915 7623 50  0000 C CNN
F 2 "" H 1900 7450 50  0001 C CNN
F 3 "" H 1900 7450 50  0001 C CNN
	1    1900 7450
	-1   0    0    1   
$EndComp
Text GLabel 2050 7300 2    50   Input ~ 0
POT4
$Comp
L Device:R_POT RV6
U 1 1 5ED9BE64
P 2650 7300
F 0 "RV6" H 2581 7346 50  0000 R CNN
F 1 "PTV09A-4225F-B103" H 2581 7255 50  0000 R CNN
F 2 "Potentiometer_THT:Potentiometer_Bourns_PTV09A-1_Single_Vertical" H 2650 7300 50  0001 C CNN
F 3 "~" H 2650 7300 50  0001 C CNN
	1    2650 7300
	1    0    0    -1  
$EndComp
$Comp
L power:GND #PWR0158
U 1 1 5ED9BE6A
P 2650 7150
F 0 "#PWR0158" H 2650 6900 50  0001 C CNN
F 1 "GND" H 2655 6977 50  0000 C CNN
F 2 "" H 2650 7150 50  0001 C CNN
F 3 "" H 2650 7150 50  0001 C CNN
	1    2650 7150
	-1   0    0    1   
$EndComp
$Comp
L power:+5V #PWR0159
U 1 1 5ED9BE70
P 2650 7450
F 0 "#PWR0159" H 2650 7300 50  0001 C CNN
F 1 "+5V" H 2665 7623 50  0000 C CNN
F 2 "" H 2650 7450 50  0001 C CNN
F 3 "" H 2650 7450 50  0001 C CNN
	1    2650 7450
	-1   0    0    1   
$EndComp
Text GLabel 2800 7300 2    50   Input ~ 0
POT6
$Comp
L Device:R_POT RV8
U 1 1 5ED9BE77
P 3400 7300
F 0 "RV8" H 3331 7346 50  0000 R CNN
F 1 "PTV09A-4225F-B103" H 3331 7255 50  0000 R CNN
F 2 "Potentiometer_THT:Potentiometer_Bourns_PTV09A-1_Single_Vertical" H 3400 7300 50  0001 C CNN
F 3 "~" H 3400 7300 50  0001 C CNN
	1    3400 7300
	1    0    0    -1  
$EndComp
$Comp
L power:GND #PWR0160
U 1 1 5ED9BE7D
P 3400 7150
F 0 "#PWR0160" H 3400 6900 50  0001 C CNN
F 1 "GND" H 3405 6977 50  0000 C CNN
F 2 "" H 3400 7150 50  0001 C CNN
F 3 "" H 3400 7150 50  0001 C CNN
	1    3400 7150
	-1   0    0    1   
$EndComp
$Comp
L power:+5V #PWR0161
U 1 1 5ED9BE83
P 3400 7450
F 0 "#PWR0161" H 3400 7300 50  0001 C CNN
F 1 "+5V" H 3415 7623 50  0000 C CNN
F 2 "" H 3400 7450 50  0001 C CNN
F 3 "" H 3400 7450 50  0001 C CNN
	1    3400 7450
	-1   0    0    1   
$EndComp
Text GLabel 3550 7300 2    50   Input ~ 0
POT8
$Comp
L Device:R_POT RV10
U 1 1 5ED9BE8A
P 4150 7300
F 0 "RV10" H 4081 7346 50  0000 R CNN
F 1 "PTV09A-4225F-B103" H 4081 7255 50  0000 R CNN
F 2 "Potentiometer_THT:Potentiometer_Bourns_PTV09A-1_Single_Vertical" H 4150 7300 50  0001 C CNN
F 3 "~" H 4150 7300 50  0001 C CNN
	1    4150 7300
	1    0    0    -1  
$EndComp
$Comp
L power:GND #PWR0162
U 1 1 5ED9BE90
P 4150 7150
F 0 "#PWR0162" H 4150 6900 50  0001 C CNN
F 1 "GND" H 4155 6977 50  0000 C CNN
F 2 "" H 4150 7150 50  0001 C CNN
F 3 "" H 4150 7150 50  0001 C CNN
	1    4150 7150
	-1   0    0    1   
$EndComp
$Comp
L power:+5V #PWR0163
U 1 1 5ED9BE96
P 4150 7450
F 0 "#PWR0163" H 4150 7300 50  0001 C CNN
F 1 "+5V" H 4165 7623 50  0000 C CNN
F 2 "" H 4150 7450 50  0001 C CNN
F 3 "" H 4150 7450 50  0001 C CNN
	1    4150 7450
	-1   0    0    1   
$EndComp
Text GLabel 4300 7300 2    50   Input ~ 0
POT10
$Comp
L Device:R_POT RV12
U 1 1 5ED9BE9D
P 4900 7300
F 0 "RV12" H 4831 7346 50  0000 R CNN
F 1 "PTV09A-4225F-B103" H 4831 7255 50  0000 R CNN
F 2 "Potentiometer_THT:Potentiometer_Bourns_PTV09A-1_Single_Vertical" H 4900 7300 50  0001 C CNN
F 3 "~" H 4900 7300 50  0001 C CNN
	1    4900 7300
	1    0    0    -1  
$EndComp
$Comp
L power:GND #PWR0164
U 1 1 5ED9BEA3
P 4900 7150
F 0 "#PWR0164" H 4900 6900 50  0001 C CNN
F 1 "GND" H 4905 6977 50  0000 C CNN
F 2 "" H 4900 7150 50  0001 C CNN
F 3 "" H 4900 7150 50  0001 C CNN
	1    4900 7150
	-1   0    0    1   
$EndComp
$Comp
L power:+5V #PWR0165
U 1 1 5ED9BEA9
P 4900 7450
F 0 "#PWR0165" H 4900 7300 50  0001 C CNN
F 1 "+5V" H 4915 7623 50  0000 C CNN
F 2 "" H 4900 7450 50  0001 C CNN
F 3 "" H 4900 7450 50  0001 C CNN
	1    4900 7450
	-1   0    0    1   
$EndComp
Text GLabel 5050 7300 2    50   Input ~ 0
POT12
$Comp
L Device:R_POT RV14
U 1 1 5ED9BEB0
P 5650 7300
F 0 "RV14" H 5581 7346 50  0000 R CNN
F 1 "PTV09A-4225F-B103" H 5581 7255 50  0000 R CNN
F 2 "Potentiometer_THT:Potentiometer_Bourns_PTV09A-1_Single_Vertical" H 5650 7300 50  0001 C CNN
F 3 "~" H 5650 7300 50  0001 C CNN
	1    5650 7300
	1    0    0    -1  
$EndComp
$Comp
L power:GND #PWR0166
U 1 1 5ED9BEB6
P 5650 7150
F 0 "#PWR0166" H 5650 6900 50  0001 C CNN
F 1 "GND" H 5655 6977 50  0000 C CNN
F 2 "" H 5650 7150 50  0001 C CNN
F 3 "" H 5650 7150 50  0001 C CNN
	1    5650 7150
	-1   0    0    1   
$EndComp
$Comp
L power:+5V #PWR0167
U 1 1 5ED9BEBC
P 5650 7450
F 0 "#PWR0167" H 5650 7300 50  0001 C CNN
F 1 "+5V" H 5665 7623 50  0000 C CNN
F 2 "" H 5650 7450 50  0001 C CNN
F 3 "" H 5650 7450 50  0001 C CNN
	1    5650 7450
	-1   0    0    1   
$EndComp
Text GLabel 5800 7300 2    50   Input ~ 0
POT14
$Comp
L Device:R_POT RV16
U 1 1 5ED9BEC3
P 6400 7300
F 0 "RV16" H 6331 7346 50  0000 R CNN
F 1 "PTV09A-4225F-B103" H 6331 7255 50  0000 R CNN
F 2 "Potentiometer_THT:Potentiometer_Bourns_PTV09A-1_Single_Vertical" H 6400 7300 50  0001 C CNN
F 3 "~" H 6400 7300 50  0001 C CNN
	1    6400 7300
	1    0    0    -1  
$EndComp
$Comp
L power:GND #PWR0168
U 1 1 5ED9BEC9
P 6400 7150
F 0 "#PWR0168" H 6400 6900 50  0001 C CNN
F 1 "GND" H 6405 6977 50  0000 C CNN
F 2 "" H 6400 7150 50  0001 C CNN
F 3 "" H 6400 7150 50  0001 C CNN
	1    6400 7150
	-1   0    0    1   
$EndComp
$Comp
L power:+5V #PWR0169
U 1 1 5ED9BECF
P 6400 7450
F 0 "#PWR0169" H 6400 7300 50  0001 C CNN
F 1 "+5V" H 6415 7623 50  0000 C CNN
F 2 "" H 6400 7450 50  0001 C CNN
F 3 "" H 6400 7450 50  0001 C CNN
	1    6400 7450
	-1   0    0    1   
$EndComp
Text GLabel 6550 7300 2    50   Input ~ 0
POT16
Text GLabel 10400 4750 0    50   Input ~ 0
LED-
$Comp
L Device:R R1
U 1 1 5EDBDF89
P 10550 4750
F 0 "R1" V 10343 4750 50  0000 C CNN
F 1 "150" V 10434 4750 50  0000 C CNN
F 2 "Resistor_SMD:R_0603_1608Metric" V 10480 4750 50  0001 C CNN
F 3 "~" H 10550 4750 50  0001 C CNN
	1    10550 4750
	0    1    1    0   
$EndComp
$Comp
L power:GND #PWR0170
U 1 1 5EDC3884
P 10700 4750
F 0 "#PWR0170" H 10700 4500 50  0001 C CNN
F 1 "GND" H 10705 4577 50  0000 C CNN
F 2 "" H 10700 4750 50  0001 C CNN
F 3 "" H 10700 4750 50  0001 C CNN
	1    10700 4750
	0    -1   -1   0   
$EndComp
Wire Wire Line
	3000 2050 3000 2350
Wire Wire Line
	3000 2350 3300 2350
Connection ~ 3300 2350
Wire Wire Line
	3300 2350 3400 2350
$Comp
L 74xx:74HC4051 U2
U 1 1 5EE9D5E2
P 4650 1750
F 0 "U2" H 4700 2431 50  0000 C CNN
F 1 "74HC4051" H 4700 2340 50  0000 C CNN
F 2 "Package_SO:TSSOP-16_4.4x5mm_P0.65mm" H 5550 750 50  0001 C CIN
F 3 "http://www.ti.com/lit/ds/symlink/cd74hc4067.pdf" H 4300 2600 50  0001 C CNN
	1    4650 1750
	1    0    0    -1  
$EndComp
$Comp
L power:+5V #PWR0103
U 1 1 5EE9D5E8
P 4250 1250
F 0 "#PWR0103" H 4250 1100 50  0001 C CNN
F 1 "+5V" H 4265 1423 50  0000 C CNN
F 2 "" H 4250 1250 50  0001 C CNN
F 3 "" H 4250 1250 50  0001 C CNN
	1    4250 1250
	0    -1   -1   0   
$EndComp
Wire Wire Line
	4250 1250 4650 1250
Text GLabel 4350 1650 0    50   Input ~ 0
D2
Text GLabel 4350 1750 0    50   Input ~ 0
D3
Text GLabel 4350 1850 0    50   Input ~ 0
D4
Wire Wire Line
	4650 2350 4650 2850
Wire Wire Line
	4350 2050 4350 2350
Wire Wire Line
	4350 2350 4650 2350
Connection ~ 4650 2350
Wire Wire Line
	4650 2350 4750 2350
$Comp
L 74xx:74HC4051 U3
U 1 1 5EEAF1B7
P 6050 1750
F 0 "U3" H 6100 2431 50  0000 C CNN
F 1 "74HC4051" H 6100 2340 50  0000 C CNN
F 2 "Package_SO:TSSOP-16_4.4x5mm_P0.65mm" H 6950 750 50  0001 C CIN
F 3 "http://www.ti.com/lit/ds/symlink/cd74hc4067.pdf" H 5700 2600 50  0001 C CNN
	1    6050 1750
	1    0    0    -1  
$EndComp
$Comp
L power:+5V #PWR0105
U 1 1 5EEAF1BD
P 5650 1250
F 0 "#PWR0105" H 5650 1100 50  0001 C CNN
F 1 "+5V" H 5665 1423 50  0000 C CNN
F 2 "" H 5650 1250 50  0001 C CNN
F 3 "" H 5650 1250 50  0001 C CNN
	1    5650 1250
	0    -1   -1   0   
$EndComp
Wire Wire Line
	5650 1250 6050 1250
Text GLabel 5750 1650 0    50   Input ~ 0
D2
Text GLabel 5750 1750 0    50   Input ~ 0
D3
Text GLabel 5750 1850 0    50   Input ~ 0
D4
Wire Wire Line
	6050 2350 6050 2850
Wire Wire Line
	5750 2050 5750 2350
Wire Wire Line
	5750 2350 6050 2350
Connection ~ 6050 2350
Wire Wire Line
	6050 2350 6150 2350
Wire Wire Line
	3300 2850 4650 2850
Connection ~ 4650 2850
Wire Wire Line
	4650 2850 6050 2850
Connection ~ 6050 2850
Wire Wire Line
	6050 2850 7350 2850
Text GLabel 7050 1450 0    50   Input ~ 0
A3
$Comp
L 74xx:74HC4051 U4
U 1 1 5EC2EB55
P 7350 1750
F 0 "U4" H 7400 2431 50  0000 C CNN
F 1 "74HC4051" H 7400 2340 50  0000 C CNN
F 2 "Package_SO:TSSOP-16_4.4x5mm_P0.65mm" H 8250 750 50  0001 C CIN
F 3 "http://www.ti.com/lit/ds/symlink/cd74hc4067.pdf" H 7000 2600 50  0001 C CNN
	1    7350 1750
	1    0    0    -1  
$EndComp
$Comp
L power:+5V #PWR0171
U 1 1 5EC2EB5B
P 6950 1250
F 0 "#PWR0171" H 6950 1100 50  0001 C CNN
F 1 "+5V" H 6965 1423 50  0000 C CNN
F 2 "" H 6950 1250 50  0001 C CNN
F 3 "" H 6950 1250 50  0001 C CNN
	1    6950 1250
	0    -1   -1   0   
$EndComp
Wire Wire Line
	6950 1250 7350 1250
Text GLabel 7050 1650 0    50   Input ~ 0
D2
Text GLabel 7050 1750 0    50   Input ~ 0
D3
Text GLabel 7050 1850 0    50   Input ~ 0
D4
Wire Wire Line
	7350 2350 7350 2850
Wire Wire Line
	7050 2050 7050 2350
Wire Wire Line
	7050 2350 7350 2350
Connection ~ 7350 2350
Wire Wire Line
	7350 2350 7450 2350
Connection ~ 7350 2850
Text GLabel 8400 1450 0    50   Input ~ 0
A4
$Comp
L 74xx:74HC4051 U5
U 1 1 5EC4ECC1
P 8700 1750
F 0 "U5" H 8750 2431 50  0000 C CNN
F 1 "74HC4051" H 8750 2340 50  0000 C CNN
F 2 "Package_SO:TSSOP-16_4.4x5mm_P0.65mm" H 9600 750 50  0001 C CIN
F 3 "http://www.ti.com/lit/ds/symlink/cd74hc4067.pdf" H 8350 2600 50  0001 C CNN
	1    8700 1750
	1    0    0    -1  
$EndComp
$Comp
L power:+5V #PWR0172
U 1 1 5EC4ECC7
P 8300 1250
F 0 "#PWR0172" H 8300 1100 50  0001 C CNN
F 1 "+5V" H 8315 1423 50  0000 C CNN
F 2 "" H 8300 1250 50  0001 C CNN
F 3 "" H 8300 1250 50  0001 C CNN
	1    8300 1250
	0    -1   -1   0   
$EndComp
Wire Wire Line
	8300 1250 8700 1250
Text GLabel 8400 1650 0    50   Input ~ 0
D2
Text GLabel 8400 1750 0    50   Input ~ 0
D3
Text GLabel 8400 1850 0    50   Input ~ 0
D4
Wire Wire Line
	8700 2350 8700 2850
Wire Wire Line
	8400 2050 8400 2350
Wire Wire Line
	8400 2350 8700 2350
Connection ~ 8700 2350
Wire Wire Line
	8700 2350 8800 2350
Wire Wire Line
	7350 2850 8700 2850
Connection ~ 8700 2850
Text GLabel 9700 1450 0    50   Input ~ 0
A5
$Comp
L 74xx:74HC4051 U6
U 1 1 5EC66D18
P 10000 1750
F 0 "U6" H 10050 2431 50  0000 C CNN
F 1 "74HC4051" H 10050 2340 50  0000 C CNN
F 2 "Package_SO:TSSOP-16_4.4x5mm_P0.65mm" H 10900 750 50  0001 C CIN
F 3 "http://www.ti.com/lit/ds/symlink/cd74hc4067.pdf" H 9650 2600 50  0001 C CNN
	1    10000 1750
	1    0    0    -1  
$EndComp
$Comp
L power:+5V #PWR0173
U 1 1 5EC66D1E
P 9600 1250
F 0 "#PWR0173" H 9600 1100 50  0001 C CNN
F 1 "+5V" H 9615 1423 50  0000 C CNN
F 2 "" H 9600 1250 50  0001 C CNN
F 3 "" H 9600 1250 50  0001 C CNN
	1    9600 1250
	0    -1   -1   0   
$EndComp
Wire Wire Line
	9600 1250 10000 1250
Text GLabel 9700 1650 0    50   Input ~ 0
D2
Text GLabel 9700 1750 0    50   Input ~ 0
D3
Text GLabel 9700 1850 0    50   Input ~ 0
D4
Wire Wire Line
	10000 2350 10000 2850
Wire Wire Line
	9700 2050 9700 2350
Wire Wire Line
	9700 2350 10000 2350
Connection ~ 10000 2350
Wire Wire Line
	10000 2350 10100 2350
Wire Wire Line
	8700 2850 10000 2850
Text GLabel 2250 2150 2    50   Input ~ 0
A3
Text GLabel 2250 2250 2    50   Input ~ 0
A4
Text GLabel 2250 2350 2    50   Input ~ 0
A5
$Comp
L Mechanical:MountingHole H1
U 1 1 5EDD0C26
P 7300 6150
F 0 "H1" H 7400 6196 50  0000 L CNN
F 1 "MountingHole" H 7400 6105 50  0000 L CNN
F 2 "MountingHole:MountingHole_2.5mm_Pad" H 7300 6150 50  0001 C CNN
F 3 "~" H 7300 6150 50  0001 C CNN
	1    7300 6150
	1    0    0    -1  
$EndComp
$Comp
L Mechanical:MountingHole H2
U 1 1 5EDD636F
P 8100 6150
F 0 "H2" H 8200 6196 50  0000 L CNN
F 1 "MountingHole" H 8200 6105 50  0000 L CNN
F 2 "MountingHole:MountingHole_2.5mm_Pad" H 8100 6150 50  0001 C CNN
F 3 "~" H 8100 6150 50  0001 C CNN
	1    8100 6150
	1    0    0    -1  
$EndComp
$Comp
L Mechanical:MountingHole H3
U 1 1 5EDD6F02
P 8850 6150
F 0 "H3" H 8950 6196 50  0000 L CNN
F 1 "MountingHole" H 8950 6105 50  0000 L CNN
F 2 "MountingHole:MountingHole_2.5mm_Pad" H 8850 6150 50  0001 C CNN
F 3 "~" H 8850 6150 50  0001 C CNN
	1    8850 6150
	1    0    0    -1  
$EndComp
$Comp
L Mechanical:MountingHole H4
U 1 1 5EDD79DD
P 9600 6150
F 0 "H4" H 9700 6196 50  0000 L CNN
F 1 "MountingHole" H 9700 6105 50  0000 L CNN
F 2 "MountingHole:MountingHole_2.5mm_Pad" H 9600 6150 50  0001 C CNN
F 3 "~" H 9600 6150 50  0001 C CNN
	1    9600 6150
	1    0    0    -1  
$EndComp
$EndSCHEMATC
