PCBNEW-LibModule-V1  2020-05-15 18:29:50
# encoding utf-8
Units mm
$INDEX
PTL6019O0104B1
$EndINDEX
$MODULE PTL6019O0104B1
Po 0 0 0 15 5ebed18e 00000000 ~~
Li PTL6019O0104B1
Cd PTL60-19O0-104B1-1
Kw Variable Resistor
Sc 0
At STD
AR 
Op 0 0 0
T0 34.650 1.25 1.27 1.27 0 0.254 N V 21 N "VR**"
T1 34.650 1.25 1.27 1.27 0 0.254 N I 21 N "PTL6019O0104B1"
DS -2.5 5.75 72.5 5.75 0.2 24
DS 72.5 5.75 72.5 -3.25 0.2 24
DS 72.5 -3.25 -2.5 -3.25 0.2 24
DS -2.5 -3.25 -2.5 5.75 0.2 24
DS -1.5 -3.25 -2.5 -3.25 0.1 21
DS -2.5 -3.25 -2.5 -3.25 0.1 21
DS -2.5 -3.25 -1.5 -3.25 0.1 21
DS -1.5 -3.25 -1.5 -3.25 0.1 21
DS -2.5 5.75 -1.5 5.75 0.1 21
DS -1.5 5.75 -1.5 5.75 0.1 21
DS -1.5 5.75 -2.5 5.75 0.1 21
DS -2.5 5.75 -2.5 5.75 0.1 21
DS 1.5 5.75 68.5 5.75 0.1 21
DS 68.5 5.75 68.5 5.75 0.1 21
DS 68.5 5.75 1.5 5.75 0.1 21
DS 1.5 5.75 1.5 5.75 0.1 21
DS 71.5 5.75 72.5 5.75 0.1 21
DS 72.5 5.75 72.5 5.75 0.1 21
DS 72.5 5.75 71.5 5.75 0.1 21
DS 71.5 5.75 71.5 5.75 0.1 21
DS 72.5 -3.25 1.75 -3.25 0.1 21
DS 1.75 -3.25 1.75 -3.25 0.1 21
DS 1.75 -3.25 72.5 -3.25 0.1 21
DS 72.5 -3.25 72.5 -3.25 0.1 21
DS -4.2 -4.475 73.5 -4.475 0.1 24
DS 73.5 -4.475 73.5 6.975 0.1 24
DS 73.5 6.975 -4.2 6.975 0.1 24
DS -4.2 6.975 -4.2 -4.475 0.1 24
DS -2.5 -3.25 -2.5 -3.25 0.1 21
DS -2.5 -3.25 -2.5 5.75 0.1 21
DS -2.5 5.75 -2.5 5.75 0.1 21
DS -2.5 5.75 -2.5 -3.25 0.1 21
DS 72.5 5.75 72.5 5.75 0.1 21
DS 72.5 5.75 72.5 -3.25 0.1 21
DS 72.5 -3.25 72.5 -3.25 0.1 21
DS 72.5 -3.25 72.5 5.75 0.1 21
DS -3.2 -0.1 -3.2 -0.1 0.2 21
DS -3.1 -0.1 -3.1 -0.1 0.2 21
DS -3.2 -0.1 -3.2 -0.1 0.2 21
DA -3.15 -0.1 -3.200 -0.1 -1800 0.2 21
DA -3.15 -0.1 -3.100 -0.1 -1800 0.2 21
DA -3.15 -0.1 -3.200 -0.1 -1800 0.2 21
$PAD
Po 0.000 -0
Sh "1" C 1.950 1.950 0 0 900
Dr 1.3 0 0
At STD N 00E0FFFF
Ne 0 ""
$EndPAD
$PAD
Po 0.000 -2.5
Sh "2" C 1.950 1.950 0 0 900
Dr 1.3 0 0
At STD N 00E0FFFF
Ne 0 ""
$EndPAD
$PAD
Po 70.000 -0
Sh "3" C 1.950 1.950 0 0 900
Dr 1.3 0 0
At STD N 00E0FFFF
Ne 0 ""
$EndPAD
$PAD
Po 70.000 5
Sh "B1" C 1.950 1.950 0 0 900
Dr 1.3 0 0
At STD N 00E0FFFF
Ne 0 ""
$EndPAD
$PAD
Po 0.000 5
Sh "E1" C 1.950 1.950 0 0 900
Dr 1.3 0 0
At STD N 00E0FFFF
Ne 0 ""
$EndPAD
$PAD
Po 0.000 2.5
Sh "L1" C 1.950 1.950 0 0 900
Dr 1.3 0 0
At STD N 00E0FFFF
Ne 0 ""
$EndPAD
$EndMODULE PTL6019O0104B1
$EndLIBRARY
